…
#### A Vector

    x <- list(p=1:500, r=letters)
    tidy_list(x)

    ## # A tibble: 526 x 2
    ##       id content
    ##    <chr>   <chr>
    ## 1      p       1
    ## 2      p       2
    ## 3      p       3
    ## 4      p       4
    ## 5      p       5
    ## 6      p       6
    ## 7      p       7
    ## 8      p       8
    ## 9      p       9
    ## 10     p      10
    ## # ... with 516 more rows

#### A Dataframe

    x <- list(p=mtcars, r=mtcars, z=mtcars, d=mtcars)
    tidy_list(x) 

    ## # A tibble: 128 x 12
    ##       id   mpg   cyl  disp    hp  drat    wt  qsec    vs    am  gear  carb
    ##    <chr> <dbl> <dbl> <dbl> <dbl> <dbl> <dbl> <dbl> <dbl> <dbl> <dbl> <dbl>
    ## 1      p  21.0     6 160.0   110  3.90 2.620 16.46     0     1     4     4
    ## 2      p  21.0     6 160.0   110  3.90 2.875 17.02     0     1     4     4
    ## 3      p  22.8     4 108.0    93  3.85 2.320 18.61     1     1     4     1
    ## 4      p  21.4     6 258.0   110  3.08 3.215 19.44     1     0     3     1
    ## 5      p  18.7     8 360.0   175  3.15 3.440 17.02     0     0     3     2
    ## 6      p  18.1     6 225.0   105  2.76 3.460 20.22     1     0     3     1
    ## 7      p  14.3     8 360.0   245  3.21 3.570 15.84     0     0     3     4
    ## 8      p  24.4     4 146.7    62  3.69 3.190 20.00     1     0     4     2
    ## 9      p  22.8     4 140.8    95  3.92 3.150 22.90     1     0     4     2
    ## 10     p  19.2     6 167.6   123  3.92 3.440 18.30     1     0     4     4
    ## # ... with 118 more rows

#### A Named Vector

    x <- setNames(
        sample(LETTERS[1:6], 1000, TRUE), 
        sample(state.name[1:5], 1000, TRUE)
    )
    tidy_vector(x)

    ## # A tibble: 1,000 x 2
    ##            id content
    ##         <chr>   <chr>
    ## 1    Arkansas       E
    ## 2  California       A
    ## 3     Alabama       B
    ## 4    Arkansas       A
    ## 5     Alabama       E
    ## 6     Arizona       A
    ## 7     Alabama       E
    ## 8    Arkansas       C
    ## 9     Alabama       D
    ## 10    Alabama       B
    ## # ... with 990 more rows
…
        ) %>%
        tbl_df() %T>%
        print() %>%
        group_by(time, term) %>%
        summarize(n = sum(n)) %>%
        group_by(time) %>%
        arrange(desc(n)) %>%
        slice(1:10) %>%
        mutate(term = factor(paste(term, time, sep = "__"), levels = rev(paste(term, time, sep = "__")))) %>%
        ggplot(aes(x = n, y = term)) +
            geom_barh(stat='identity') +
            facet_wrap(~time, ncol=2, scales = 'free_y') +
            scale_y_discrete(labels = function(x) gsub("__.+$", "", x))

    ## # A tibble: 42,057 x 7
    ##     time  turn sentence         term     n     i     j
    ##    <dbl> <dbl>    <dbl>        <chr> <dbl> <int> <int>
    ## 1      1     1        1        we'll     1     1     1
    ## 2      1     1        1         talk     1     1     2
    ## 3      1     1        1        about     2     1     3
    ## 4      1     1        1 specifically     1     1     4
    ## 5      1     1        1       health     1     1     5
    ## 6      1     1        1         care     1     1     6
    ## 7      1     1        1           in     1     1     7
    ## 8      1     1        1            a     1     1     8
    ## 9      1     1        1       moment     1     1     9
    ## 10     1     1        1            .     1     1    10
    ## # ... with 42,047 more rows
…
#### Dataframe

    DATA[["run.col"]] <- x
    split_run(DATA)

    ## # A tibble: 49 x 8
    ##     person    sex adult                         state   code run.col
    ##     <fctr> <fctr> <int>                         <chr> <fctr>   <chr>
    ## 1      sam      m     0 Computer is fun. Not too fun.     K1       1
    ## 2      sam      m     0 Computer is fun. Not too fun.     K1      22
    ## 3      sam      m     0 Computer is fun. Not too fun.     K1     333
    ## 4      sam      m     0 Computer is fun. Not too fun.     K1    4444
    ## 5      sam      m     0 Computer is fun. Not too fun.     K1   55555
    ## 6      sam      m     0 Computer is fun. Not too fun.     K1  666666
    ## 7      sam      m     0 Computer is fun. Not too fun.     K1        
    ## 8     greg      m     0       No it's not, it's dumb.     K2    <NA>
    ## 9  teacher      m     1            What should we do?     K3       a
    ## 10 teacher      m     1            What should we do?     K3      bb
    ## # ... with 39 more rows, and 2 more variables: element_id <int>,
    ## #   sentence_id <int>
…
#### A Dataframe

     split_token(DATA)

    ## # A tibble: 70 x 7
    ##    person    sex adult    state   code element_id sentence_id
    ##    <fctr> <fctr> <int>    <chr> <fctr>      <int>       <int>
    ## 1     sam      m     0 computer     K1          1           1
    ## 2     sam      m     0       is     K1          1           2
    ## 3     sam      m     0      fun     K1          1           3
    ## 4     sam      m     0        .     K1          1           4
    ## 5     sam      m     0      not     K1          1           5
    ## 6     sam      m     0      too     K1          1           6
    ## 7     sam      m     0      fun     K1          1           7
    ## 8     sam      m     0        .     K1          1           8
    ## 9    greg      m     0       no     K2          2           1
    ## 10   greg      m     0     it's     K2          2           2
    ## # ... with 60 more rows
…
#### A Dataframe

     split_word(DATA)

    ## # A tibble: 53 x 7
    ##    person    sex adult    state   code element_id sentence_id
    ##    <fctr> <fctr> <int>    <chr> <fctr>      <int>       <int>
    ## 1     sam      m     0 computer     K1          1           1
    ## 2     sam      m     0       is     K1          1           2
    ## 3     sam      m     0      fun     K1          1           3
    ## 4     sam      m     0      not     K1          1           4
    ## 5     sam      m     0      too     K1          1           5
    ## 6     sam      m     0      fun     K1          1           6
    ## 7    greg      m     0       no     K2          2           1
    ## 8    greg      m     0     it's     K2          2           2
    ## 9    greg      m     0      not     K2          2           3
    ## 10   greg      m     0     it's     K2          2           4
    ## # ... with 43 more rows
…
    lapply(debates, function(x){
        xml2::read_html(paste0("http://www.presidency.ucsb.edu/ws/index.php?pid=", x)) %>%
            rvest::html_nodes("p") %>%
            rvest::html_text() %>%
            textshape::split_index(., grep("^[A-Z]+:", .)) %>%
            #textshape::split_match("^[A-Z]+:", TRUE, TRUE) %>% #equal to line above
            textshape::combine() %>%
            textshape::split_transcript() %>%
            textshape::split_sentence()
    }) %>%
        textshape::tidy_list("location")

    ## # A tibble: 7,409 x 5
    ##     location     person
    ##        <chr>      <chr>
    ## 1  wisconsin MODERATORS
    ## 2  wisconsin     CAVUTO
    ## 3  wisconsin     CAVUTO
    ## 4  wisconsin     CAVUTO
    ## 5  wisconsin  BARTIROMO
    ## 6  wisconsin  BARTIROMO
    ## 7  wisconsin  BARTIROMO
    ## 8  wisconsin      BAKER
    ## 9  wisconsin      BAKER
    ## 10 wisconsin      BAKER
    ## # ... with 7,399 more rows, and 3 more variables: dialogue <chr>,
    ## #   element_id <int>, sentence_id <int>
